8103 0 r 236542 15
11155 0 r 485073 9
16314 0 r 366689 271
25775 0 r 484884 383
32984 0 w 419577 351
40713 0 w 160393 313
45615 0 w 57981 347
53535 0 w 44450 27
59937 0 r 241186 324
64708 0 w 374918 33
72986 0 w 374921 252
82119 0 w 420765 251
83451 0 r 511977 440
93572 0 w 220153 461
100179 0 w 75747 173
106165 0 r 469286 193
109095 0 r 236038 442
118064 0 r 144511 183
121683 0 r 98386 132
127295 0 r 281260 217
138060 0 r 502143 84
148060 0 r 164808 334
154343 0 w 355740 90
162373 0 w 25009 242
168238 0 w 441830 321
177205 0 w 541086 178
187150 0 r 476633 116
188815 0 w 219115 488
197903 0 w 43312 47
206011 0 r 238279 120
210901 0 w 415656 3
218605 0 w 342365 310
222849 0 r 519605 173
227909 0 w 33894 444
233304 0 r 352748 149
235557 0 r 277532 34
245285 0 w 169659 161
246623 0 w 86108 39
253850 0 r 146986 493
254995 0 w 447037 83
257961 0 r 378081 387
264342 0 w 289982 227
274808 0 r 348326 277
283680 0 r 87329 67
294630 0 r 525233 195
302309 0 w 58216 4
312145 0 w 261712 103
319398 0 r 261106 356
321291 0 r 412464 413
331967 0 r 264968 287
335810 0 w 346176 156
346537 0 w 282429 259
354983 0 w 526010 44
360561 0 r 319149 237
368734 0 w 542179 98
373179 0 w 316842 93
375175 0 w 365947 473
377371 0 w 201340 406
385778 0 w 487027 410
389169 0 r 118278 69
393345 0 r 239832 373
403567 0 r 430638 368
406899 0 r 476350 101
412113 0 r 184207 75
416347 0 w 1562 403
425219 0 r 238645 27
432109 0 r 85729 171
433313 0 r 47424 67
439909 0 r 230780 13
449342 0 w 159622 309
458401 0 w 454649 428
461265 0 w 13808 170
468434 0 w 508048 246
476008 0 r 286238 95
480421 0 w 445369 253
482730 0 w 3804 100
487902 0 w 184721 103
489484 0 w 344184 120
500473 0 r 536059 12
501778 0 w 432005 21
503525 0 w 45335 249
510701 0 w 37211 19
521279 0 r 330795 493
524130 0 w 304048 495
530063 0 w 70824 250
539057 0 r 346493 355
546878 0 r 431213 280
556327 0 w 485090 146
566701 0 w 313670 175
577577 0 r 58566 213
584704 0 w 104645 285
586049 0 r 23440 273
591612 0 w 296040 354
596360 0 w 164397 137
606840 0 w 138817 355
617742 0 r 177005 54
627320 0 r 296436 293
633121 0 r 165083 227
643637 0 r 174943 7
652251 0 w 92629 391
655507 0 w 362676 119
656753 0 r 33494 227
659732 0 w 273021 299
668568 0 r 514727 138
670357 0 r 389871 182
675543 0 w 70895 73
686390 0 r 26749 438
694841 0 w 275285 158
696851 0 r 547772 327
703452 0 w 124389 443
708042 0 r 218429 491
717081 0 r 23372 214
721773 0 w 99173 171
728180 0 w 184258 228
737798 0 w 447030 371
748625 0 r 222108 226
753737 0 r 65235 321
762116 0 w 234281 297
763230 0 r 474228 87
768919 0 r 525849 488
775156 0 r 266481 225
782196 0 r 499471 331
784345 0 r 173790 35
789961 0 w 68676 239
791537 0 r 373750 303
802241 0 r 85336 132
803396 0 r 447187 397
812027 0 r 63491 327
816719 0 r 241558 223
825096 0 r 319925 279
830711 0 w 246898 31
833819 0 r 364730 41
843612 0 r 334588 15
847251 0 r 103907 224
852592 0 w 117797 96
859465 0 w 487612 67
861699 0 w 53876 213
863209 0 r 94945 429
865425 0 r 66711 420
875622 0 w 11979 398
883199 0 w 111732 234
893807 0 r 383190 150
903836 0 r 1834 88
906029 0 r 522497 249
916205 0 r 177002 240
924875 0 w 521767 269
931642 0 r 298223 420
934532 0 w 112666 92
941024 0 w 452811 476
951221 0 r 379752 493
959143 0 w 318627 5
967533 0 w 527553 192
975404 0 r 7325 336
978393 0 r 89178 30
985463 0 w 215554 161
994622 0 w 352059 94
996009 0 r 113606 298
1000025 0 w 96372 450
1009058 0 r 407456 308
1016822 0 w 118047 278
1020381 0 r 95896 495
1023786 0 w 122684 88
1026406 0 w 324790 205
1031160 0 r 16050 471
1034771 0 r 358549 389
1042745 0 r 92271 78
1046551 0 w 549071 333
1050518 0 r 202257 34
1059499 0 w 355516 40
1069092 0 w 219713 487
1071109 0 r 207683 314
1080964 0 r 50119 152
1082466 0 r 230661 50
1085591 0 w 40304 198
1092848 0 w 539066 312
1094584 0 w 273621 110
1097177 0 r 323832 3
1098797 0 w 258906 446
1107327 0 r 162029 15
1112967 0 w 464232 282
1118882 0 r 546364 36
1124283 0 w 95565 394
1126386 0 r 138466 305
1129715 0 r 256937 104
1135581 0 r 32790 250
1143041 0 r 336999 338
1144732 0 r 319059 427
1155331 0 r 502024 336
1158918 0 w 154359 133
1167024 0 w 203622 5
1173803 0 r 474890 166
1181989 0 r 528778 294
1184620 0 r 493715 345
1195146 0 r 29685 336
1202274 0 w 224432 283
1208594 0 r 31154 228
1215279 0 w 466546 426
1219641 0 r 506103 353
1221756 0 r 293419 145
1224164 0 r 122420 219
1226106 0 w 56562 341
1229793 0 r 184411 433
1236404 0 r 156952 304
1238108 0 r 397402 248
1248489 0 w 373061 496
1258289 0 w 498443 209
1265880 0 w 156588 275
1276103 0 r 302511 325
1281435 0 r 69308 417
1286613 0 r 396751 277
1287763 0 w 306165 68
1291660 0 r 400788 77
1298225 0 w 105307 463
1302211 0 r 302422 252
1310362 0 r 468215 12
1315580 0 w 199935 233
1323898 0 r 159455 82
1331767 0 r 500863 165
1339944 0 r 8993 181
1343490 0 w 448620 357
1350953 0 w 57621 356
1358724 0 r 279671 188
1363044 0 w 109890 416
1369820 0 w 286900 240
1376888 0 w 22842 306
1379455 0 r 439648 26
1380658 0 w 449386 452
1382577 0 r 489595 390
1391756 0 r 181366 300
1396435 0 w 11036 344
1405181 0 r 378146 249
1411463 0 w 525 73
1413115 0 w 391120 467
1420474 0 w 215774 356
1426726 0 w 99445 228
1436482 0 r 485322 259
1438003 0 r 400496 72
1445349 0 r 163132 108
1448727 0 r 545305 486
1450125 0 w 295436 473
1459971 0 w 372461 441
1466117 0 r 188221 185
1469025 0 r 30766 400
1476960 0 w 93290 20
1482718 0 r 423539 29
1493295 0 w 546548 11
1495267 0 w 440 18
1500758 0 w 59661 96
1503055 0 r 176067 441
1505590 0 r 235378 233
1512412 0 w 323600 101
1523022 0 w 315821 448
1532526 0 w 44647 381
1539224 0 r 254412 35
1542051 0 r 486448 35
1548148 0 w 443807 31
1552333 0 r 374118 153
1555769 0 w 33571 331
1562110 0 r 423983 274
1568444 0 w 443366 63
1577555 0 r 73032 368
1582467 0 r 189286 82
1591206 0 r 507642 419
1594515 0 r 169163 389
1603924 0 w 211551 292
1607725 0 w 371608 94
1612872 0 w 336011 236
1622321 0 w 106056 127
1625379 0 w 93810 240
1630338 0 r 332968 351
1638296 0 w 49474 301
1642451 0 r 532277 34
1646007 0 r 546088 164
1647192 0 w 545160 105
1654075 0 r 147107 336
1662394 0 w 42746 295
1667201 0 r 447609 176
1675271 0 w 196722 41
1680009 0 r 23664 256
1684091 0 w 375849 297
1687398 0 w 489518 316
1693188 0 w 314618 29
1694289 0 r 8193 305
1702898 0 r 100784 132
1712482 0 r 119142 204
1721046 0 r 97183 181
1728269 0 w 92391 217
1738615 0 r 63092 449
1740933 0 r 26628 257
1742181 0 r 133888 282
1744472 0 w 162917 484
1752022 0 r 337824 375
1756220 0 r 193005 30
1763238 0 w 247792 40
1770000 0 r 182283 280
1775170 0 r 356362 404
1783525 0 r 247951 195
1788797 0 r 334200 51
1793824 0 w 357459 203
1797919 0 w 122886 175
1802457 0 r 307862 397
1805865 0 r 114052 470
1816576 0 w 524153 466
1823505 0 r 293985 475
1829087 0 r 203086 51
1831691 0 r 34057 336
1836950 0 r 517422 418
1843775 0 w 496178 158
1847900 0 r 297993 136
1850438 0 w 280750 486
1855024 0 r 217241 362
1860384 0 w 487368 489
1867998 0 w 232314 190
1876921 0 w 1613 158
1881521 0 r 98083 286
1884174 0 w 11521 95
1891506 0 r 442753 336
1892965 0 r 370167 146
1897085 0 r 130866 284
1904210 0 r 22851 416
1909440 0 w 22304 339
1917317 0 w 341165 371
1924181 0 r 103797 92
1925796 0 w 338780 96
1932745 0 r 473300 340
1934493 0 w 128432 217
1936753 0 w 453002 56
1945466 0 w 328460 277
1953452 0 r 103439 36
1955588 0 w 412967 187
1960088 0 w 462882 326
1962926 0 w 531019 432
1971655 0 r 517384 302
1976806 0 r 402295 438
1984664 0 w 397435 441
1995097 0 w 179228 155
2005153 0 r 140237 439
2010668 0 w 310652 351
2017852 0 w 359469 494
2027318 0 r 78346 283
2028957 0 w 106871 290
2031476 0 r 520180 144
2042467 0 w 87598 485
2045783 0 w 335543 63
2051766 0 r 303988 298
2059250 0 r 338288 417
2065380 0 r 271028 12
2074198 0 w 398147 268
2082417 0 w 328063 270
2088925 0 r 393653 321
2091764 0 w 247577 60
2102757 0 w 310654 298
2110498 0 w 315398 243
2120370 0 w 125495 402
2123569 0 r 155871 58
2134343 0 w 96157 82
2137478 0 w 297347 360
2142397 0 w 480696 227
2147770 0 r 123699 57
2151128 0 w 202364 351
2152914 0 r 491662 296
2154987 0 w 7536 63
2162611 0 r 254868 218
2165120 0 r 414024 292
2173092 0 r 43487 439
2174602 0 w 420038 367
2183459 0 w 169063 309
2192259 0 w 104782 485
2195445 0 r 316397 140
2201213 0 w 106566 334
2210406 0 r 373511 395
2217819 0 w 313078 325
2227558 0 r 285188 356
2230652 0 w 273819 7
2233883 0 w 250535 58
2240160 0 w 348444 264
2244969 0 w 412186 130
2250537 0 r 11336 206
2261073 0 w 86481 244
2262656 0 r 341701 462
2273517 0 w 490680 271
2274983 0 w 433516 30
2279402 0 r 16421 75
2286611 0 r 241447 453
2291121 0 w 66773 65
2300364 0 r 39958 193
2301685 0 r 139179 484
2303304 0 r 83784 441
2309193 0 r 8614 133
2316700 0 r 517916 422
2324820 0 r 61997 467
2332157 0 r 261254 64
2339199 0 w 370022 435
2348825 0 w 371121 313
2354945 0 w 343093 344
2361800 0 w 44304 308
2363659 0 r 96262 24
2369026 0 r 278969 332
2378603 0 w 205391 489
2386778 0 r 236634 410
2388102 0 w 406199 232
2390974 0 w 219857 460
2397186 0 w 447223 180
2406992 0 r 330866 231
2411333 0 w 136341 252
2414219 0 r 68129 47
2418491 0 w 252064 375
2422650 0 w 183784 168
2427366 0 r 196671 26
2436554 0 r 490634 358
2444016 0 r 286302 1
2448017 0 w 420670 391
2450167 0 r 147303 153
2458383 0 w 475522 72
2460033 0 w 544267 474
2463700 0 w 138080 363
2468902 0 w 237571 258
2477142 0 w 505411 116
2487508 0 w 545326 10
2495438 0 r 35447 203
2506097 0 r 283462 203
2510953 0 r 15025 93
2520636 0 w 72024 267
2526962 0 w 269860 304
2528263 0 r 167780 488
2534344 0 r 335578 383
2540979 0 r 368537 208
2545984 0 r 449987 28
2551694 0 r 76596 233
2557587 0 w 22080 469
2566964 0 r 51263 146
2568583 0 r 464310 78
2578406 0 w 240134 118
2581163 0 r 421567 220
2587927 0 r 310518 298
2594195 0 w 155388 148
2597199 0 r 14515 71
2600814 0 w 194460 2
2603123 0 w 409442 29
2608557 0 r 94137 187
2613549 0 r 149636 363
2615952 0 r 15356 143
2617119 0 w 2928 397
2624247 0 r 162883 335
2631285 0 r 218935 323
2635151 0 w 369894 107
2645581 0 w 329187 304
2656168 0 w 131565 55
2657177 0 w 513070 425
2661770 0 r 365193 287
2663368 0 r 244333 122
2671338 0 r 169061 47
2679569 0 r 235241 148
2684594 0 w 106047 394
2695134 0 w 262907 323
2698217 0 w 93744 173
2702936 0 w 234232 331
2708920 0 r 249702 407
2710297 0 w 299839 331
2717895 0 w 543563 179
2725966 0 r 212529 160
2728972 0 r 352801 443
2737402 0 r 474228 162
2742992 0 w 374785 422
2750379 0 w 43474 452
2757905 0 w 486909 72
2764962 0 w 167561 202
2773962 0 r 386191 377
2782691 0 r 296167 106
2786307 0 r 140438 377
2793390 0 w 86913 95
2797239 0 w 305187 353
2801706 0 w 9433 50
2809981 0 w 51737 298
2816917 0 w 35441 129
2825698 0 r 158700 447
2832400 0 r 170632 411
2841324 0 w 382437 354
2850896 0 w 151509 490
2856479 0 w 160546 121
2858450 0 r 508781 141
2860417 0 r 317285 353
2868056 0 r 193913 292
2872921 0 w 276068 230
2874537 0 r 4465 178
2881992 0 w 446625 17
2888699 0 w 290267 456
2896312 0 r 169211 335
2900339 0 w 51869 251
2907526 0 r 111654 269
2914192 0 r 246818 130
2922688 0 w 389392 91
2931316 0 r 52175 124
2942305 0 w 241166 90
2950780 0 r 314593 254
2954454 0 r 225486 166
2963593 0 w 173645 66
2964852 0 w 110012 363
2968851 0 r 152176 321
2978866 0 r 95614 457
2985897 0 r 188742 301
2988144 0 r 224341 304
2996802 0 r 253055 42
3004325 0 r 279935 411
3009506 0 w 440417 88
3016153 0 r 356656 476
3024620 0 w 92418 277
3033259 0 w 535987 150
3042380 0 w 520659 262
3050064 0 w 109655 149
3054784 0 w 536842 200
3065778 0 w 303615 244
3068988 0 r 30014 466
3076752 0 w 534880 44
3087233 0 w 355398 111
3090717 0 w 542928 193
3094530 0 r 309583 214
3104557 0 w 526962 21
3111241 0 w 352451 282
3112453 0 r 38588 342
3114670 0 w 272442 149
3116223 0 w 497851 45
3122584 0 w 153850 351
3124827 0 r 25591 95
3128796 0 r 545014 462
3131130 0 r 35068 169
3135797 0 r 366310 493
3139224 0 r 38229 329
3141422 0 r 453065 420
3149501 0 r 496451 263
3157395 0 w 456655 386
3164143 0 r 97753 327
3165914 0 r 504195 122
3174211 0 w 298718 359
3178585 0 w 5151 9
3186013 0 r 411008 94
3191000 0 r 291645 443
3200369 0 r 142648 12
3203951 0 r 212367 301
3207426 0 r 241752 455
3215202 0 w 195460 265
3223664 0 r 25302 38
3229117 0 r 38061 40
3239979 0 w 58029 77
3242675 0 r 169427 62
3252966 0 r 406362 352
3255765 0 r 249842 108
3259997 0 r 10928 325
3265744 0 w 245472 452
3272246 0 w 264518 97
3278533 0 w 545350 11
3283606 0 r 331348 364
3285595 0 r 450301 296
3287488 0 r 351543 336
3290932 0 r 185656 448
3298590 0 w 63497 107
3305165 0 w 172413 17
3309305 0 w 77378 14
3314393 0 r 397575 190
3317621 0 w 235612 47
3326225 0 r 128836 147
3332038 0 r 40587 160
3335903 0 w 235164 130
3337182 0 r 519472 494
3341353 0 r 210305 354
3343661 0 w 226974 316
3348255 0 w 210312 448
3352913 0 w 210617 27
3360870 0 r 162609 73
3364273 0 r 472299 104
3369576 0 w 298952 86
3375582 0 r 438355 173
3381048 0 w 494294 262
3388663 0 w 392694 192
3397936 0 w 492175 386
3407062 0 r 520435 253
3416065 0 w 104290 498
3418617 0 r 250800 289
3426072 0 w 286334 195
3429791 0 r 193829 415
3439020 0 w 494271 234
3449583 0 r 437590 480
3450903 0 r 474536 384
3460760 0 r 28609 305
3468296 0 w 402052 42
3471964 0 w 20863 489
3478731 0 r 67938 428
3484543 0 r 498804 37
3492512 0 w 339878 448
3495553 0 r 121565 227
3505850 0 w 118233 470
3516142 0 r 244196 406
3521957 0 r 277091 79
3526672 0 r 485234 374
3531052 0 r 544414 12
3539567 0 w 67575 70
3544146 0 r 38445 444
3552510 0 w 152811 325
3556695 0 w 215206 111
3559056 0 w 186880 387
3561343 0 w 464080 321
3570949 0 w 411555 226
3573346 0 w 52619 396
3580307 0 w 457068 336
3583658 0 r 536701 220
3591369 0 r 350776 191
3600045 0 r 134051 167
3602244 0 w 126361 124
3610568 0 w 233706 41
3615672 0 w 451613 448
3619129 0 r 400817 46
3624707 0 w 232638 277
3632788 0 w 139377 203
3635094 0 r 441076 194
3643385 0 r 317916 361
3653911 0 w 389189 336
3660279 0 r 64806 351
3667324 0 w 8917 213
3677410 0 w 10364 210
3680492 0 w 495255 315
3682185 0 r 98823 47
3691545 0 w 83119 179
3694081 0 r 343738 421
3698493 0 w 371294 438
3707342 0 w 239880 387
3712233 0 r 156627 103
3714560 0 r 47815 314
3721063 0 r 521095 483
3722097 0 w 33813 242
3732703 0 w 187232 443
3742680 0 r 118688 359
3752179 0 w 465563 380
3755570 0 r 212983 337
3757526 0 w 324258 327
3759421 0 w 235210 46
3764916 0 r 407711 414
3770774 0 r 87209 322
3775003 0 w 218181 298
3778149 0 r 232342 460
3785663 0 r 151560 215
3786893 0 w 46898 204
3792453 0 w 131588 410
3800587 0 r 449353 222
3802456 0 w 299532 138
3805881 0 r 367749 244
3809632 0 w 440699 321
3812396 0 r 519578 81
3819177 0 r 506770 318
3825439 0 r 122385 412
3826817 0 w 530892 421
3836615 0 r 469600 487
3845731 0 r 539952 347
3848720 0 r 176449 494
3858374 0 w 209224 449
3859780 0 r 285603 262
3869763 0 w 525791 115
3878214 0 r 451206 323
3887119 0 w 218876 61
3893084 0 r 370156 12
3903616 0 w 186875 241
3914256 0 w 464753 43
3919635 0 r 239336 276
3928068 0 r 315927 426
3929920 0 r 516333 138
3933440 0 r 338655 235
3942102 0 r 140007 342
3947264 0 r 433325 376
3953198 0 r 320326 99
3961413 0 r 207285 214
3969363 0 r 53173 10
3975838 0 r 67645 117
3981908 0 r 101962 122
3991812 0 w 426918 155
3996377 0 w 270035 174
4001411 0 w 167765 17
4002926 0 w 140405 255
4009794 0 w 53765 216
4017241 0 w 365391 373
4019316 0 w 43223 351
4030215 0 r 438334 432
4039148 0 r 44168 203
4049311 0 r 265173 382
4055910 0 r 337519 141
4066714 0 w 123090 299
4073769 0 r 293300 195
4079903 0 r 148451 113
4089547 0 w 349272 5
4097803 0 r 478609 473
4104396 0 r 300976 184
4109915 0 r 83129 297
4115525 0 r 266800 191
4120252 0 w 68386 78
4123143 0 w 40154 321
4124603 0 r 466422 65
4130985 0 r 283599 498
4137629 0 w 347933 13
4146095 0 r 379193 96
4152928 0 r 524706 125
4159192 0 r 329503 14
4166467 0 w 340539 26
4171791 0 w 383469 142
4177213 0 r 64315 305
4184129 0 r 426440 229
4192666 0 r 446048 309
4202822 0 w 2460 394
4206692 0 w 204928 124
4213126 0 w 126172 168
4223482 0 w 335665 73
4226902 0 r 323153 165
4230568 0 r 183306 10
4238781 0 w 530246 273
4240758 0 w 152635 241
4251249 0 w 207898 414
4256769 0 w 146230 4
4266618 0 w 448037 8
4275654 0 r 152910 248
4280049 0 r 279077 141
4282635 0 w 222710 72
4291877 0 w 267479 180
4294480 0 w 497119 74
4296654 0 w 511833 130
4302777 0 w 328152 96
4306478 0 w 44588 421
4315066 0 w 18315 73
4321800 0 w 188054 223
4323565 0 r 272170 335
4332106 0 w 419783 281
4342848 0 r 129186 178
4345868 0 r 153926 75
4351249 0 w 294867 248
4356968 0 w 462340 71
4364024 0 r 133121 103
4371402 0 r 62308 373
4374022 0 w 22707 260
4375056 0 w 191453 289
4377083 0 r 488950 322
4378835 0 r 6212 477
4381115 0 r 17408 436
4390243 0 w 99656 207
4394420 0 r 356719 477
4402247 0 w 157065 291
4408512 0 w 250717 55
4410324 0 r 29564 122
4420224 0 w 140199 269
4424022 0 w 5135 366
4426771 0 r 192394 100
4436865 0 w 331675 205
4438878 0 w 522728 205
4449827 0 r 143149 354
4456642 0 w 152156 337
4460428 0 w 115382 411
4468014 0 w 275051 320
4478252 0 w 32679 200
4481591 0 r 341795 245
4491319 0 r 294385 62
4499413 0 w 198478 468
4501832 0 w 131413 345
4506411 0 r 453733 397
4508713 0 r 447002 300
4510798 0 w 353294 407
4520233 0 r 334285 60
4521320 0 w 75404 166
4522452 0 r 484169 252
4530991 0 r 409942 48
4539570 0 w 362009 312
4546655 0 w 447763 122
4551682 0 w 306212 391
4559929 0 r 379010 370
4570551 0 r 393418 156
4581290 0 w 34045 190
4582712 0 r 501242 427
4587037 0 w 524499 468
4590064 0 w 412996 313
4593389 0 w 333750 124
4600547 0 r 433318 179
4604282 0 r 489031 190
4610886 0 w 173269 166
4616924 0 w 30218 477
4627066 0 r 75150 431
4630293 0 r 65531 474
4639163 0 r 166542 28
4646217 0 w 181585 115
4647911 0 r 454215 341
4658008 0 r 471480 449
4662417 0 w 97345 283
4669348 0 r 344034 15
4674249 0 w 253970 223
4681829 0 r 532008 6
4683280 0 r 399536 175
4686654 0 r 443127 158
4692873 0 w 409698 351
4696842 0 w 495294 168
4700576 0 w 160457 131
4705037 0 r 404139 348
4707543 0 w 109236 400
4713972 0 r 188360 277
4719168 0 r 355380 43
4727007 0 r 234411 191
4737863 0 w 517244 466
4740256 0 w 429407 116
4746849 0 r 329253 284
4757607 0 r 75832 172
4759617 0 w 405161 100
4764837 0 r 464894 487
4773422 0 w 41624 257
4774700 0 r 306266 74
4779533 0 w 453663 114
4790485 0 r 399347 71
4796167 0 w 428056 249
4799351 0 w 536918 188
4803451 0 r 89055 168
4812755 0 w 468983 250
4822954 0 r 62767 497
4825949 0 w 438024 334
4830068 0 w 158038 30
4834325 0 r 486856 421
4845170 0 r 122767 5
4853476 0 r 149106 227
4863665 0 w 19209 126
4874115 0 w 279607 157
4878807 0 w 67535 275
4881335 0 r 158195 87
4883396 0 w 534671 219
4889804 0 r 319184 235
4898486 0 r 541281 111
4908105 0 w 115350 122
4916108 0 w 228595 222
4926880 0 w 21052 95
4931391 0 r 290725 270
4939124 0 w 86952 332
4944662 0 w 180627 135
4952981 0 w 274128 155
4960817 0 w 267760 392
4969426 0 w 207293 354
4979946 0 r 207404 321
4984476 0 w 435183 193
4989036 0 r 249982 51
4996128 0 w 461099 450
5003131 0 w 32265 105
5009783 0 w 193870 228
5011737 0 w 292039 269
5021913 0 r 9293 220
5027294 0 w 96130 406
5032159 0 r 196594 258
5037921 0 w 152318 347
5041161 0 w 30470 460
5048367 0 w 295529 285
5056734 0 w 481388 73
5063902 0 r 318824 457
5072358 0 w 444311 227
5080827 0 r 315045 439
5082594 0 w 303772 223
5083909 0 w 287531 53
5094187 0 w 250870 238
5102854 0 w 462705 236
5111600 0 w 51508 498
5118257 0 r 481955 44
5129127 0 r 16161 71
5136757 0 w 173721 115
5141376 0 r 25575 339
5150420 0 r 192359 85
5159625 0 w 471828 384
5170615 0 w 236516 152
5175717 0 r 408721 139
5180588 0 r 500226 224
5183967 0 w 26670 364
5188268 0 r 158572 416
5195741 0 w 214572 319
5204215 0 w 239417 317
5207346 0 w 186056 51
5217442 0 w 329552 3
5219837 0 w 176737 287
5227532 0 r 118214 285
5232094 0 r 69854 31
5234343 0 r 273216 188
5242952 0 w 510941 408
5245912 0 r 93359 17
5252675 0 r 367727 282
5259947 0 w 408895 472
5267992 0 r 288266 360
5273208 0 w 349026 380
5276357 0 w 351904 472
5280275 0 w 420842 293
5285183 0 w 176915 464
5287347 0 w 313891 265
5296069 0 w 311677 215
5297134 0 r 83350 393
5300334 0 r 431023 432
5301528 0 w 88702 359
5302903 0 r 420400 354
5312498 0 r 419017 493
5318787 0 r 114251 117
5320229 0 w 453166 247
5329039 0 r 164470 341
5332078 0 w 311246 81
5341265 0 w 158330 452
5344803 0 w 63118 234
5355117 0 r 46329 259
5356617 0 w 507991 469
5366804 0 r 100997 74
5371506 0 w 143969 95
5379298 0 r 13155 315
5386786 0 r 401146 384
5393030 0 r 85583 17
5399703 0 w 546844 329
5402029 0 r 61418 62
5412084 0 w 248553 49
5421562 0 r 294750 232
5431276 0 w 32598 51
5439950 0 w 154567 283
5441763 0 w 135857 411
5446476 0 w 96262 431
5451749 0 r 24817 41
5458775 0 w 51683 332
5468979 0 w 93423 29
5475338 0 w 87268 24
5477840 0 r 177577 349
5482570 0 r 83218 303
5485297 0 r 114019 100
5495965 0 r 74155 239
5504664 0 r 493894 116
5509926 0 r 430119 286
5514559 0 w 447189 121
5524082 0 w 263034 487
5526205 0 w 313467 447
5535130 0 w 25139 332
5540653 0 w 115338 195
5545059 0 w 36680 444
5553303 0 w 92250 179
5560737 0 r 433189 299
5564964 0 w 464187 486
5567226 0 r 399528 258
5578215 0 w 82911 22
5586980 0 w 521400 413
5591405 0 w 49968 448
5596901 0 r 16653 252
5605030 0 w 211188 28
5607811 0 w 271570 484
5612572 0 r 490377 382
5621164 0 w 467258 398
5623330 0 w 465462 331
5625951 0 w 230242 270
5630892 0 w 272449 49
5634624 0 w 398835 51
5643384 0 r 479856 263
5651747 0 r 328580 20
5656468 0 w 464507 205
5666790 0 r 522604 328
5669552 0 r 10505 369
5675841 0 r 95285 178
5682260 0 r 229818 494
5687252 0 w 518885 470
5691723 0 r 472355 120
5694097 0 w 331912 427
5698640 0 w 90432 410
5709392 0 w 327456 206
5720168 0 w 312895 212
5724035 0 r 471891 469
5734443 0 w 224151 401
5744976 0 w 144731 168
5746125 0 r 496468 388
5749173 0 r 336068 293
5755768 0 r 467031 434
5758566 0 w 352334 124
5764021 0 w 296155 284
5773956 0 w 57907 3
5779297 0 w 238961 332
5782875 0 w 179091 181
5791101 0 r 53968 17
5800975 0 r 129819 260
5807558 0 r 502119 295
5810203 0 w 474718 163
5815768 0 r 48404 12
5822551 0 w 289864 131
5826899 0 r 514438 485
5830213 0 w 523858 486
5836938 0 r 335770 287
5842499 0 w 517246 266
5845311 0 w 468643 308
5851590 0 w 505270 47
5858670 0 w 336471 313
5868874 0 w 155069 167
5874143 0 w 432048 99
5879102 0 w 309268 91
5882617 0 w 161329 426
5884215 0 w 217829 51
5889525 0 w 231479 158
5893003 0 w 92331 39
5895119 0 w 108898 466
5898038 0 r 422175 285
5900961 0 r 59141 242
5903981 0 w 417513 60
5909982 0 r 65725 309
5918274 0 r 389426 390
5927216 0 r 418028 43
5930836 0 r 167355 468
5936872 0 r 208075 473
5946537 0 w 263746 226
5956603 0 w 102874 323
5965929 0 r 386697 377
