8103 0 w 533793 449
15828 0 r 112313 399
24194 0 w 81481 303
25346 0 r 194029 366
35844 0 r 382874 347
39398 0 r 198590 470
45838 0 r 248011 83
49598 0 w 175025 176
53376 0 w 60955 300
61820 0 w 174313 155
67628 0 r 510352 261
70246 0 r 484071 215
78851 0 w 249658 222
86594 0 w 128725 324
88336 0 w 42492 224
95275 0 w 294107 441
98338 0 w 186217 195
107829 0 w 482674 146
118677 0 w 392455 175
124879 0 r 407439 192
127365 0 r 124117 21
128682 0 w 315582 20
134970 0 w 187541 146
139489 0 r 109580 485
141233 0 w 213739 400
144827 0 r 443167 444
153235 0 r 458483 330
159555 0 w 357326 238
163097 0 r 130047 102
169607 0 r 166662 13
173587 0 w 188171 366
181022 0 w 210632 455
183457 0 r 161564 14
187014 0 w 370090 103
197411 0 w 437541 75
203763 0 w 196183 57
213658 0 w 408571 457
222474 0 r 107470 295
228440 0 w 350551 393
238318 0 r 6076 258
248805 0 w 266478 149
254902 0 w 211999 276
265893 0 w 411116 72
273843 0 r 435816 486
282263 0 r 275227 127
286447 0 w 95733 278
289766 0 r 311722 495
294518 0 w 532382 426
300407 0 r 158649 4
301569 0 w 361225 471
308522 0 w 371207 305
310737 0 r 549049 114
318149 0 r 44694 337
319326 0 r 475288 372
329492 0 r 531695 245
335077 0 r 281045 330
339939 0 r 540531 229
350139 0 r 261730 448
353107 0 r 492868 340
354343 0 w 384775 346
359704 0 w 345999 154
366275 0 r 346295 263
373302 0 r 475867 293
380782 0 w 503931 212
388191 0 w 91382 63
389974 0 r 193763 113
399223 0 r 517565 356
409617 0 r 76226 373
412314 0 w 74818 378
413978 0 r 4692 417
421097 0 r 463854 422
431520 0 r 344283 260
432679 0 r 421439 158
440373 0 r 230429 466
442592 0 r 8966 435
447938 0 r 205085 224
452545 0 w 9683 303
457128 0 w 55294 62
462578 0 w 150052 218
472452 0 r 508754 440
476066 0 w 420910 470
481888 0 r 263372 254
487285 0 r 127507 278
496206 0 r 91093 271
499347 0 r 480490 211
501623 0 w 495513 17
512237 0 w 464069 308
518470 0 r 121944 416
524826 0 w 231089 373
529001 0 w 320589 41
537836 0 w 300683 278
543720 0 r 39865 314
546816 0 r 45790 432
553393 0 r 325308 126
556795 0 r 275151 136
567782 0 r 312157 206
575648 0 w 252554 291
579818 0 w 304180 275
585970 0 w 439343 4
593916 0 r 523213 119
