72036 0 r 173379 3
72036 0 r 366689 15
72036 0 r 173379 3
72036 0 r 366689 15
157654 0 w 340973 7
228677 0 w 343585 12
297025 0 w 298776 5
308584 0 w 44450 8
363612 0 r 207068 3
371119 0 w 276353 15
449715 0 w 394946 14
527343 0 w 505772 12
527343 0 r 350429 16
527343 0 w 505772 12
527343 0 r 350429 16
542137 0 r 485198 8
567623 0 r 123863 8
594940 0 r 98386 5
642066 0 r 87391 10
734515 0 r 164808 13
788345 0 r 451606 14
793899 0 w 441830 8
874576 0 w 491209 6
898662 0 w 51059 17
981800 0 r 40461 7
1026194 0 w 339700 10
1102452 0 r 63478 15
1198081 0 w 33894 8
1243034 0 w 68807 8
1250800 0 w 176576 2
1324319 0 r 341929 6
1423779 0 r 90979 5
1498943 0 w 126490 12
1568798 0 w 289982 19
1568798 0 r 153132 12
1568798 0 w 289982 19
1568798 0 r 153132 12
1585702 0 w 112550 10
1684878 0 w 125307 7
1733430 0 r 264968 12
1762860 0 w 534147 4
1815533 0 w 47402 16
1905721 0 r 42328 12
1964843 0 w 542179 13
2000299 0 w 54722 3
2095823 0 r 445787 15
2188733 0 w 378844 6
2278429 0 r 118278 8
2311194 0 r 506417 17
2385770 0 r 476350 6
2428914 0 r 177624 8
2510427 0 w 186919 2
2543593 0 r 307300 5
2547105 0 w 338750 3
2613912 0 w 279393 6
2697711 0 w 13808 4
2760408 0 w 360983 9
2780212 0 r 276813 12
2867972 0 r 390707 8
2869664 0 w 184721 3
2876484 0 w 548506 10
2879788 0 r 272788 15
2946261 0 r 436840 11
2954037 0 r 542939 22
3017294 0 r 452981 8
3031192 0 r 346493 13
3100410 0 w 463931 1
3130490 0 w 192087 15
3183632 0 r 268719 11
3195297 0 w 104645 16
3199751 0 w 409902 7
3254665 0 w 164397 6
3350469 0 r 543739 11
3362216 0 w 321740 4
3364099 0 r 242523 23
3395163 0 w 428858 6
3472840 0 r 338619 7
3539890 0 r 33494 7
3560682 0 r 430313 12
3589214 0 r 199367 9
3623632 0 r 343470 18
3637543 0 w 275285 15
3648643 0 w 307557 19
3738210 0 r 539007 11
3765023 0 r 78705 7
3770279 0 w 99173 4
3825354 0 r 473224 8
3900477 0 r 222108 11
3942600 0 r 405199 11
4002835 0 r 94941 17
4005036 0 w 174623 15
4101802 0 r 266481 16
4101802 0 w 63122 15
4101802 0 r 266481 16
4101802 0 w 63122 15
4109646 0 r 261780 6
4182979 0 w 532865 13
4210356 0 r 435706 8
4246143 0 w 159306 13
4258705 0 r 241558 5
4333475 0 w 253460 8
4340476 0 r 44213 8
4369617 0 r 50562 14
4431551 0 r 103907 8
4475962 0 r 322528 12
4490359 0 r 233655 13
4575925 0 r 66806 7
4660885 0 w 436435 7
4728476 0 r 527606 15
4759422 0 w 96525 12
4810258 0 w 503861 2
4859234 0 w 521767 17
4917911 0 r 435995 10
4939429 0 w 452811 10
5032402 0 r 312513 15
5091429 0 w 527553 17
5161142 0 r 109220 12
5168093 0 w 176733 7
5222900 0 r 291312 7
5288016 0 r 113606 7
5319181 0 r 441105 13
5381757 0 w 304552 5
5472696 0 w 139640 5
5491160 0 w 122684 7
5508364 0 w 206149 13
5603545 0 r 358549 14
5674290 0 w 523022 7
5775285 0 r 202257 8
5856103 0 w 313716 14
5897116 0 r 207683 11
5986670 0 r 27578 4
5997494 0 r 217154 7
6075557 0 w 468233 10
6174730 0 r 2755 9
6206613 0 w 284249 6
6254764 0 r 308799 3
6346885 0 r 177401 9
6447387 0 w 95565 17
6459421 0 r 127912 5
6459421 0 r 273500 6
6459421 0 r 127912 5
6459421 0 r 273500 6
6507032 0 w 75326 10
6569405 0 w 368042 18
6595935 0 r 414533 8
6625046 0 w 181918 9
6652284 0 w 167174 12
6749584 0 r 493715 12
6845845 0 r 336525 4
6903279 0 w 250291 9
6908426 0 w 483192 10
6994392 0 r 506103 16
7006543 0 w 77313 9
7051299 0 r 373384 8
7130023 0 w 59047 8
7164607 0 r 156952 20
7172648 0 w 515116 2
7272719 0 w 228491 11
7351549 0 w 515877 11
7381066 0 r 302511 11
7425386 0 r 229431 7
7481698 0 r 74515 18
7562352 0 r 66705 1
7636342 0 w 105307 13
7667207 0 w 392668 1
7667207 0 w 199935 4
7667207 0 w 392668 1
7667207 0 w 199935 4
7741391 0 r 377225 7
7775210 0 r 8993 5
7801679 0 w 354923 13
7873821 0 r 279671 4
7908026 0 r 317181 10
7956950 0 w 335615 11
8028992 0 w 11171 9
8120298 0 r 427603 12
8154735 0 r 202057 1
8224429 0 w 272611 8
8250964 0 r 444515 11
8252059 0 w 390607 17
8252059 0 r 301718 12
8252059 0 w 390607 17
8252059 0 r 301718 12
8271169 0 r 485322 10
8277387 0 r 134286 14
8308096 0 w 484264 12
8373626 0 r 193094 10
8408904 0 r 30766 12
8479262 0 r 272073 9
8557396 0 w 59661 3
8571372 0 r 84306 9
8618789 0 w 323600 11
8715891 0 w 433279 11
8725021 0 r 254412 10
8744299 0 w 279923 6
8751431 0 r 167315 12
8778221 0 w 388259 13
8785334 0 r 423983 18
8839675 0 w 445389 5
8914212 0 r 88972 8
8944993 0 w 170701 6
9038443 0 r 169163 6
9123542 0 r 153819 17
9143187 0 r 258746 15
9229512 0 r 406428 11
9249826 0 w 93810 2
9290420 0 w 382102 11
9351490 0 r 532277 9
9378058 0 w 10200 8
9399867 0 w 368557 10
9401909 0 w 489113 5
9410693 0 r 447609 3
9482402 0 r 205253 6
9534464 0 w 375849 1
9558541 0 w 263065 19
9565221 0 r 334920 17
9610107 0 r 471351 6
9651875 0 r 97183 16
9715113 0 r 513218 5
9805809 0 r 281473 8
9856205 0 r 70927 10
9953835 0 w 410835 15
9962912 0 r 89496 14
9999061 0 w 247792 10
10057689 0 r 228982 20
10139429 0 w 214029 9
10151831 0 r 150501 2
10151831 0 w 357459 1
10151831 0 r 150501 2
10151831 0 w 357459 1
10183790 0 r 194318 4
10264097 0 r 516145 3
10314333 0 w 325593 11
10410289 0 r 55671 15
10412433 0 w 219385 4
10419635 0 r 517422 15
10478886 0 w 171627 15
10507053 0 r 533364 10
10562711 0 r 239409 18
10661425 0 w 232314 17
10741661 0 r 197676 6
10799804 0 w 11521 7
10864126 0 w 25232 11
10894199 0 r 311580 4
10898508 0 w 200533 3
10903669 0 w 22304 6
10973442 0 w 322040 11
10992649 0 w 373010 15
11025557 0 r 69200 9
11037728 0 w 303429 12
11093702 0 r 15885 13
11113540 0 w 412967 5
11149541 0 w 100948 20
11236788 0 w 331520 10
11273921 0 w 63667 13
11348186 0 w 397435 11
11443517 0 r 497307 2
11532230 0 w 310652 7
11595079 0 w 60609 12
11610347 0 w 106871 6
11626538 0 w 548635 0
11724479 0 w 335543 8
11775318 0 w 356071 11
11859631 0 w 12292 7
11882154 0 w 319476 9
11955663 0 w 328063 18
12011751 0 w 100989 12
12024727 0 w 326664 15
12097396 0 r 362564 13
12155835 0 w 125495 11
12178832 0 r 536717 6
12196228 0 r 394753 12
12282237 0 r 363423 14
12282237 0 r 123699 9
12282237 0 r 363423 14
12282237 0 r 123699 9
12306826 0 r 43210 16
12366826 0 r 68865 8
12451797 0 r 82905 5
12511096 0 w 481928 16
12527923 0 w 431467 14
12590527 0 w 532221 9
12647540 0 r 70098 7
12706161 0 w 106566 20
12789095 0 w 352177 7
12855071 0 w 390839 20
12860137 0 r 385267 2
12911004 0 w 250535 8
12964782 0 w 209165 16
12991716 0 r 225852 11
12995090 0 r 32048 15
13088386 0 w 297069 15
13177033 0 w 187763 10
13192928 0 w 496561 7
13200410 0 r 379505 0
13213570 0 r 39958 7
13217788 0 r 183282 9
13220356 0 r 517916 14
13292558 0 r 347978 9
13306350 0 w 477534 9
13374367 0 w 320978 14
13442954 0 w 343093 19
13502504 0 r 47178 10
13508182 0 r 364122 6
13537054 0 w 522773 15
13575459 0 r 236634 14
13579704 0 w 102812 20
13672567 0 w 447223 11
13672567 0 w 183462 9
13672567 0 w 447223 11
13672567 0 w 183462 9
13723879 0 r 411804 8
13800243 0 r 404047 7
13834713 0 r 196671 9
13917599 0 w 354867 12
13918760 0 r 429251 4
13996524 0 r 20918 11
14024350 0 w 475522 12
14031852 0 r 230736 18
14084334 0 w 126979 18
14148093 0 r 530387 9
14189614 0 r 101386 15
14217620 0 r 292487 20
14279259 0 r 535254 9
14317846 0 w 68694 10
14379960 0 r 368537 0
14421015 0 w 258635 9
14468444 0 r 514264 5
14561864 0 r 34016 4
14578287 0 w 128547 13
14642977 0 r 12636 3
14720752 0 r 310518 19
14774440 0 r 110072 14
14789441 0 r 31229 5
14875975 0 r 34375 8
14894119 0 r 149636 17
14909156 0 r 9174 8
14989429 0 w 367644 9
14998242 0 w 120110 14
15039113 0 w 369894 5
15134416 0 w 526424 16
15146387 0 r 465970 9
15217791 0 w 265307 9
15285299 0 w 51015 7
15335482 0 r 23407 15
15379323 0 w 106047 16
15475727 0 r 114424 12
15511287 0 r 362871 4
15511287 0 w 227075 9
15511287 0 r 362871 4
15511287 0 w 227075 9
15557762 0 w 299839 10
15624742 0 w 388300 12
15657599 0 r 486433 5
15663499 0 r 62952 16
15750864 0 w 374785 16
15815741 0 r 358368 11
15831097 0 w 167561 2
15912097 0 w 424397 9
15912097 0 r 413317 14
15912097 0 w 424397 9
15912097 0 r 413317 14
15917941 0 r 336414 13
15934769 0 w 305187 14
15970439 0 r 399515 11
16030942 0 w 141529 8
16131769 0 r 313141 9
16214873 0 w 388021 3
16293332 0 w 377615 13
16321924 0 w 160546 2
16332641 0 w 53113 8
16404142 0 w 320415 11
16451404 0 r 343188 3
16502681 0 r 4465 9
16568237 0 w 313373 10
16660347 0 w 367676 10
16667518 0 w 407045 4
16677964 0 r 111654 13
16735626 0 r 411655 6
16754776 0 w 135526 17
16781164 0 r 410457 10
16832934 0 r 225486 5
16915329 0 r 164681 12
16980380 0 w 501865 8
17022596 0 w 148924 11
17057969 0 r 224341 11
17135556 0 w 107405 20
17187537 0 w 440417 3
17245013 0 w 410033 9
17301226 0 w 164004 6
17394996 0 w 367063 22
17425643 0 r 219636 7
17501462 0 w 121402 19
17595483 0 w 534880 6
17691295 0 w 136445 12
17730754 0 r 309583 7
17822032 0 w 371256 10
17887219 0 r 162755 8
17958121 0 r 400211 6
18049788 0 w 153850 19
18063224 0 r 163056 8
18156438 0 r 184951 10
18165649 0 w 7242 9
18233360 0 r 38229 13
18246348 0 w 22997 12
18337760 0 w 456655 15
18396245 0 r 42382 8
18421551 0 w 298718 14
18456292 0 w 196694 7
18510405 0 r 329787 7
18543447 0 w 181597 2
18588474 0 w 195460 11
18664098 0 r 47310 9
18672029 0 r 67835 8
18704434 0 w 103852 12
18779439 0 r 249842 7
18812768 0 r 260675 3
18904116 0 w 106144 8
18996872 0 r 431022 23
19097190 0 r 331348 17
19108082 0 w 49061 3
19176138 0 r 490909 11
19183530 0 r 312759 16
19196093 0 w 172413 7
19228496 0 r 62555 8
19301901 0 w 235612 8
19378948 0 r 264315 5
19411812 0 r 142672 6
19511963 0 w 259239 7
19607568 0 r 210305 15
19621649 0 r 197392 13
19712128 0 r 29260 7
19771832 0 r 172935 17
19802446 0 r 472299 6
19846476 0 w 274901 10
19882028 0 r 286995 14
19935451 0 r 295234 11
20007967 0 w 492175 12
20090233 0 w 150888 8
20136908 0 w 286334 17
20165103 0 r 451881 14
20212765 0 w 526527 10
20239140 0 w 486386 13
20301026 0 w 402052 11
20328711 0 w 236408 7
20342083 0 r 498804 9
20412773 0 w 112075 14
20459141 0 w 445112 13
20486454 0 r 169315 5
20537917 0 r 485234 16
20572724 0 r 196543 11
20662420 0 w 152811 14
20695277 0 r 74743 11
20773569 0 r 351588 0
20838053 0 r 456334 10
20914004 0 w 52619 11
20974620 0 w 129096 10
21019586 0 w 209335 11
21064702 0 r 499 16
21090115 0 w 126361 8
21164364 0 r 225391 10
21254865 0 r 50289 16
21282792 0 w 389120 8
21326159 0 w 139377 6
21326159 0 w 400368 6
21326159 0 w 139377 6
21326159 0 w 400368 6
21399233 0 w 367925 23
21467387 0 w 205796 11
21480189 0 w 8917 3
21572052 0 r 114335 18
21636041 0 r 51235 13
21659681 0 r 358074 11
21675818 0 r 343738 11
21710939 0 w 431015 11
21789225 0 r 112955 4
21830007 0 w 265941 6
21839714 0 r 521095 12
21841061 0 r 527462 12
21930606 0 w 393166 8
21958500 0 w 490706 12
22044287 0 r 212983 13
22054852 0 w 49173 15
22064852 0 r 453571 6
22083741 0 w 25717 9
22100623 0 w 218181 14
22123083 0 r 21964 19
22151684 0 w 46898 9
22198288 0 r 391767 12
22243634 0 r 150695 14
22301250 0 r 255506 2
22369223 0 w 440699 14
22387871 0 w 317448 7
22452464 0 r 122385 16
22457247 0 w 236240 11
22556582 0 r 286727 8
22587584 0 r 335231 14
22684340 0 r 451206 13
22764397 0 r 272669 11
22767611 0 w 263907 13
22850442 0 r 383743 11
22850442 0 r 239336 18
22850442 0 r 383743 11
22850442 0 r 239336 18
22925779 0 r 75173 5
23020812 0 r 338655 8
23098432 0 r 228588 4
23174609 0 r 320326 2
23247760 0 r 381625 0
23250599 0 r 67645 2
23302299 0 r 488957 7
23334118 0 r 190324 13
23388551 0 w 487943 9
23415121 0 w 53765 19
23480592 0 w 59059 12
23551614 0 w 473800 11
23589835 0 r 203148 13
23598878 0 r 265173 11
23655868 0 w 538332 9
23716585 0 w 213606 13
23735907 0 r 246835 25
23763942 0 w 518359 14
23789859 0 r 72906 15
23845672 0 r 83129 4
23892780 0 r 204686 8
23909258 0 r 351660 10
23991581 0 w 295538 6
24092142 0 w 13358 0
24179556 0 r 87221 13
24249614 0 r 524706 12
24303258 0 r 472273 16
24366276 0 w 383469 7
24411499 0 r 324858 11
24458218 0 r 446048 16
24550779 0 r 298424 2
24585269 0 w 79612 13
24667595 0 r 186830 13
24727447 0 w 299084 5
24781543 0 r 521155 9
24865228 0 r 3318 14
24922105 0 r 328104 8
25004700 0 r 152910 17
25039651 0 w 87137 7
25054952 0 w 197327 17
25146226 0 r 443859 9
25237760 0 w 511833 7
25289995 0 w 148352 3
25375004 0 w 80129 10
25440048 0 r 364614 7
25475296 0 r 272170 7
25551714 0 w 534959 15
25588223 0 r 153926 8
25633035 0 w 259147 8
25648050 0 w 113011 10
25659279 0 w 108242 3
25671626 0 w 22707 3
25672968 0 r 56443 12
25738174 0 r 478275 9
25774165 0 r 174459 12
25870512 0 w 318991 11
25959643 0 r 297938 11
26006303 0 r 29564 9
26096304 0 r 153641 16
26170415 0 r 192394 7
26262361 0 w 55652 16
26304263 0 w 388195 13
26316920 0 w 453574 12
26345630 0 w 115382 14
26412499 0 r 304916 14
26419450 0 r 341795 9
26507735 0 w 514540 19
26544881 0 w 131413 12
26581674 0 w 71503 6
26642477 0 r 445983 12
26734597 0 r 148214 15
26796476 0 r 484169 10
26872867 0 w 512720 14
26939795 0 w 447763 2
26981074 0 w 397951 10
27055877 0 w 170749 11
27095716 0 r 23224 16
27182022 0 r 513829 13
27242015 0 w 127685 16
27267664 0 w 196136 11
27314352 0 r 113168 6
27404413 0 w 173269 0
27455802 0 r 122317 8
27551490 0 w 30361 6
27582854 0 r 327696 14
27616923 0 r 454215 11
27708902 0 w 283848 8
27727630 0 r 344034 8
27767646 0 r 361337 19
27769807 0 r 399536 9
27794554 0 w 286609 8
27865654 0 r 183538 12
27949059 0 r 448053 8
27979281 0 r 404139 16
27995344 0 r 298137 12
28051650 0 r 46635 1
28095909 0 r 182022 16
28139599 0 r 126485 12
28193307 0 w 3973 11
28254269 0 w 405161 9
28297471 0 w 416501 9
28349687 0 r 124148 11
28449966 0 r 283475 8
28528922 0 w 536918 7
28560922 0 r 455999 8
28611833 0 w 545273 14
28618521 0 w 355416 9
28699293 0 w 158038 8
28732867 0 w 540599 7
28734741 0 r 149106 8
28827632 0 r 518916 13
28859920 0 r 301450 10
28958689 0 r 296452 7
29057062 0 r 319184 0
29134888 0 w 473306 6
29160168 0 w 242705 6
29246337 0 r 439779 11
29246337 0 r 290725 12
29246337 0 r 439779 11
29246337 0 r 290725 12
29314670 0 r 249220 15
29342566 0 w 170209 0
29429741 0 w 526403 20
29479504 0 w 207293 13
29575712 0 r 193847 8
29615307 0 r 55116 13
29616999 0 w 458330 21
29701973 0 w 32265 3
29759493 0 r 52389 15
29814284 0 w 240619 12
29815551 0 w 504929 9
29815551 0 r 196594 11
29815551 0 w 504929 9
29815551 0 r 196594 11
29864178 0 r 123002 14
29957078 0 w 312675 8
30012308 0 r 465649 18
30100977 0 r 318824 13
30176543 0 w 410142 16
30265188 0 r 244297 23
30325565 0 r 473217 7
30378929 0 w 250870 9
30456608 0 w 425337 21
30557012 0 r 481955 5
30656715 0 r 290125 10
30689352 0 r 25575 17
30770801 0 r 450552 9
30848595 0 r 151663 9
30866747 0 r 213042 6
30958847 0 w 26670 13
30992861 0 r 355444 9
31057488 0 w 347834 9
31129264 0 r 359583 2
31164148 0 r 314250 10
31239255 0 w 113832 15
31261783 0 r 69854 7
31275274 0 r 417850 3
31357684 0 r 18170 12
31372917 0 w 65167 11
31440886 0 w 408895 12
31512343 0 w 118004 11
31607677 0 r 321242 16
31686565 0 w 321652 16
31719784 0 w 313891 4
31798004 0 w 3620 5
31877483 0 r 431023 8
31880426 0 r 20606 13
31952125 0 w 540316 7
31985128 0 r 141569 17
32006935 0 w 453166 6
32086043 0 r 111968 10
32103051 0 w 496020 19
32154614 0 r 355623 5
32167108 0 r 46329 13
32173117 0 r 203282 4
32192934 0 w 345721 12
32197986 0 w 13387 9
32272042 0 r 85583 10
32329772 0 w 72827 10
32343165 0 w 253721 13
32343165 0 r 319389 10
32343165 0 w 253721 13
32343165 0 r 319389 10
32350101 0 w 154567 17
32359239 0 r 203893 13
32446304 0 r 24817 9
32507568 0 r 505415 18
32514277 0 w 25471 12
32577686 0 w 108869 8
32611025 0 r 83218 1
32629298 0 r 422797 6
32629298 0 r 313098 9
32629298 0 r 422797 6
32629298 0 r 313098 9
32679383 0 r 542880 16
32761824 0 r 490642 18
32850653 0 w 394074 11
32856231 0 w 115338 5
32856231 0 r 397775 15
32856231 0 w 115338 5
32856231 0 r 397775 15
32893025 0 r 433189 18
32926303 0 w 548507 13
32926303 0 w 453006 11
32926303 0 w 548507 13
32926303 0 w 453006 11
33016908 0 w 373787 12
33027008 0 r 16653 10
33099300 0 r 97815 10
33197007 0 r 419468 9
33230457 0 w 468752 11
33316553 0 w 465462 11
33333763 0 r 216413 16
33344525 0 r 55141 9
33423627 0 w 169883 14
33512017 0 r 224963 11
33594083 0 w 96795 3
33668791 0 w 541461 8
33708081 0 w 308343 2
33803579 0 r 472355 6
33818322 0 w 493494 15
33835791 0 w 327456 11
33934556 0 w 157470 8
34029269 0 w 440364 9
34122917 0 r 354974 9
34150275 0 r 336068 3
34207233 0 w 98772 13
34233013 0 r 311402 14
34291676 0 r 498425 10
34303221 0 w 238961 6
34330004 0 r 50872 5
34340832 0 r 129819 15
34397663 0 w 90378 10
34431141 0 r 12425 12
34463188 0 r 493767 5
34516977 0 r 514438 9
34541121 0 w 79769 12
34603270 0 w 517246 18
34622397 0 w 289889 16
34632654 0 w 336471 17
34725700 0 r 234450 15
34746410 0 r 98859 15
34839690 0 w 373107 2
34870070 0 r 172527 7
34951265 0 r 286330 2
34969080 0 r 312051 7
35013935 0 r 141761 6
35025705 0 w 417513 8
35076717 0 r 400436 5
35155579 0 w 47094 18
35202266 0 w 180613 6
35233744 0 r 208075 13
35321401 0 r 497855 17
35386848 0 w 414016 5
35433844 0 r 445092 4
35498994 0 w 10685 13
35503099 0 w 17821 8
35549530 0 w 440948 4
35631386 0 r 477093 17
35648432 0 w 45859 12
35716354 0 r 538347 5
35722485 0 w 150178 18
35796278 0 w 20989 12
35840795 0 w 182080 16
35863177 0 r 488918 9
35876151 0 r 316321 22
35891547 0 w 416116 6
35967352 0 r 548818 16
36023656 0 w 284027 10
36091051 0 r 310550 9
36142928 0 w 272714 3
36183309 0 w 182401 11
36188631 0 w 464091 4
36208381 0 r 125718 3
36215246 0 w 543334 7
36286343 0 r 203929 5
36383883 0 w 240812 14
36475320 0 w 533950 13
36524357 0 w 388549 8
36620943 0 r 256339 7
36640082 0 w 455869 6
36694177 0 w 375851 8
36722720 0 r 539052 14
36789408 0 w 495451 12
36798930 0 w 164208 7
36818184 0 r 376474 8
36854072 0 r 382625 13
36916662 0 r 324889 5
36958734 0 r 270787 2
36999573 0 w 209089 8
37091467 0 w 450319 13
37156349 0 w 420979 15
37215407 0 r 164888 6
37313665 0 w 203162 7
37364873 0 r 174526 9
37464479 0 w 133606 12
37513698 0 w 388330 12
37540025 0 r 408680 12
37553591 0 r 459583 10
37574849 0 r 330887 10
37576360 0 r 285827 10
37655182 0 r 318528 4
37724957 0 w 19343 1
37732233 0 w 437544 15
37794313 0 w 231179 13
37801167 0 w 396449 10
37877622 0 w 209795 13
37932850 0 w 388252 11
38020180 0 w 511400 11
38020180 0 w 319452 13
38020180 0 w 511400 11
38020180 0 w 319452 13
38120278 0 w 16799 9
38139198 0 w 543756 14
38202687 0 r 490641 10
38287543 0 r 471350 17
38327542 0 w 425119 12
38358605 0 w 164564 14
38366611 0 r 130763 10
38415579 0 w 226367 12
38494875 0 r 95356 2
38564759 0 r 254951 12
38634078 0 w 2252 10
38725423 0 w 375663 9
38778713 0 r 223410 7
38807287 0 r 510620 9
38847109 0 w 487412 9
38850149 0 r 311945 5
38870721 0 r 412728 7
38870721 0 r 309147 16
38870721 0 r 412728 7
38870721 0 r 309147 16
38928203 0 r 33589 9
38938465 0 r 301045 4
38995170 0 w 69771 16
39054711 0 w 426965 12
39137401 0 w 350782 9
39232481 0 r 254760 10
39317709 0 r 231505 6
39322227 0 w 87633 3
39355271 0 w 190589 6
39422776 0 w 420587 7
39483341 0 r 232637 11
39483341 0 w 191791 5
39483341 0 r 232637 11
39483341 0 w 191791 5
39529170 0 r 200705 2
39558573 0 r 465042 4
39590483 0 w 151501 11
39612848 0 r 449609 6
39706194 0 w 263052 13
39773577 0 r 470955 13
39803041 0 r 243226 8
39884710 0 r 24768 9
39895277 0 r 113556 10
39973167 0 w 459222 11
39990211 0 r 348682 20
40059083 0 w 362726 7
40113294 0 r 51521 14
40212492 0 r 152700 12
40305889 0 r 406384 14
40392225 0 r 446417 14
40414300 0 r 268181 12
40480006 0 w 42507 11
40487463 0 r 274740 7
40529016 0 w 206011 9
40600494 0 r 173761 13
40660229 0 r 530294 5
40719262 0 r 25754 4
40746813 0 w 483928 18
40783544 0 r 458528 15
40876902 0 w 111757 16
40948667 0 r 303518 8
40975801 0 w 490711 1
41074567 0 r 439135 15
41107046 0 r 435676 11
41151425 0 r 114137 7
41208275 0 r 26602 14
41232180 0 r 104034 5
41266408 0 w 196865 7
41343749 0 r 72768 6
41377491 0 r 301555 11
41395250 0 r 113593 16
41487083 0 w 321668 18
41570269 0 w 309227 9
41571518 0 r 344978 16
41602853 0 r 354851 6
41654096 0 r 194695 1
41688273 0 r 214421 8
41701499 0 w 16181 7
41728198 0 r 1113 13
41734412 0 r 79282 18
41804483 0 r 543760 9
41880238 0 w 524087 10
41939827 0 w 164824 9
41939827 0 w 372519 12
41939827 0 w 164824 9
41939827 0 w 372519 12
41970003 0 w 504117 6
42003776 0 w 116309 6
42008217 0 r 359509 12
42017851 0 w 388955 5
42055429 0 r 274920 14
42147427 0 w 161508 7
42200190 0 r 216019 9
42204740 0 r 389772 9
42243711 0 r 364091 12
42278315 0 w 324362 10
42307432 0 w 32973 12
42334237 0 r 79316 9
42408041 0 r 306523 6
42434540 0 w 524365 2
42445714 0 w 361178 10
42461625 0 r 363506 11
42504250 0 r 316353 10
42516927 0 r 105793 6
42533523 0 r 543666 8
42621617 0 r 355226 8
42721501 0 r 469145 3
42810139 0 w 50897 21
42897518 0 w 145756 11
42937942 0 r 190059 9
42981941 0 r 116449 8
43017519 0 w 478906 19
43085121 0 r 375104 7
43128816 0 w 30292 8
43147041 0 r 529305 10
43178006 0 w 94492 13
43204508 0 r 395663 12
43275451 0 w 36625 21
43278961 0 w 269880 10
43344454 0 w 498233 13
43368280 0 w 261675 4
43420653 0 w 492257 13
43451592 0 r 340382 10
43515439 0 r 140878 8
43524615 0 w 144856 7
43608363 0 w 311848 17
43633329 0 w 495417 9
43638954 0 w 210167 12
43731218 0 r 183566 12
43800327 0 w 306314 6
43886910 0 r 289923 9
43900286 0 r 64419 12
43979069 0 w 448363 14
44058563 0 r 352817 8
44084671 0 w 280880 9
44121559 0 r 306099 10
44149788 0 r 192653 13
44235298 0 w 165917 5
44284753 0 r 466969 8
44312409 0 w 318096 16
44361610 0 r 211390 14
44396208 0 w 202015 8
44435652 0 w 389301 4
44533928 0 r 298892 8
44601698 0 w 197503 10
44630821 0 r 167938 15
44666933 0 w 105562 17
44679039 0 r 272230 16
44738555 0 w 477410 9
44825228 0 w 302840 11
44876086 0 w 495903 14
44966809 0 r 374411 16
44986597 0 w 210479 8
45033067 0 w 494472 7
45044733 0 w 203534 12
45132981 0 w 334347 11
45223846 0 r 169981 5
45311030 0 w 224452 10
45329272 0 r 64077 9
45361319 0 r 117059 8
45362652 0 r 184659 10
45377040 0 w 176624 5
45399454 0 r 269000 9
45470863 0 r 396311 13
45523645 0 r 91026 9
45542280 0 w 364099 7
45600775 0 w 507240 11
45692489 0 w 22882 4
45731003 0 w 419593 10
45747643 0 r 83387 17
45782044 0 w 315864 7
45797871 0 w 534053 12
45862463 0 w 141740 5
45909994 0 w 123832 7
45944005 0 r 74879 6
46037815 0 r 524253 8
46105315 0 r 504108 8
46111915 0 w 313 13
46168165 0 w 271526 6
46173728 0 r 28538 12
46225347 0 r 437817 3
46324885 0 r 222443 8
46393785 0 w 354200 14
46452375 0 r 262364 15
46513623 0 w 146672 7
46556293 0 r 16197 20
46631083 0 r 521893 10
46675810 0 r 400150 6
46681547 0 w 164928 6
46703489 0 r 131980 7
46776198 0 w 279847 7
46850886 0 r 202980 10
46946051 0 r 26143 7
46964762 0 r 307283 8
47017421 0 w 292616 3
47075019 0 w 495952 14
47115720 0 r 165797 14
47198441 0 r 283437 11
47261377 0 r 529463 4
47276712 0 r 83180 7
47277776 0 w 503061 12
47378508 0 r 539095 6
47476454 0 r 490887 12
47516177 0 r 246384 11
47563824 0 w 136979 13
47639120 0 r 186052 3
47718059 0 w 490192 13
47728203 0 w 69657 7
47738495 0 w 109358 11
47767121 0 w 503065 7
47780136 0 w 464835 12
47876985 0 r 381246 16
47918927 0 w 328798 8
47924824 0 w 66576 7
48005985 0 r 218524 0
48076910 0 w 262260 4
48119563 0 w 194252 7
48198687 0 w 471935 4
48227871 0 w 252140 4
48294833 0 w 429949 16
48308942 0 w 537917 14
48400358 0 w 346716 13
48449548 0 w 114695 7
48513550 0 w 91353 10
48532539 0 r 44261 4
48609372 0 r 71504 12
48672007 0 w 11157 11
48722473 0 r 528466 3
48785517 0 r 364290 8
48828746 0 r 498668 2
48883836 0 r 521142 9
48928116 0 w 388981 9
